Time (min)
1.233333333
4.733333333
8.233333333
11.75
15.25
18.75
22.25
25.75
29.25
32.75
36.25
39.75
43.25
46.75
50.25
53.75
57.25
60.75
64.25
67.75
71.25
74.75
78.25
81.75
85.25
88.75
92.25
95.75
99.25
102.75
106.25
109.75
113.2666667
116.7666667
120.2666667
123.7666667
127.2666667
130.7666667
134.2666667
137.7666667
141.2666667
144.7666667
148.2666667
151.7666667
155.2666667
158.7666667
162.2666667
165.7666667
169.2666667
172.7666667
176.2666667
179.7666667
183.2666667
186.7666667
190.2666667
193.7666667
197.2666667
200.7666667
204.2666667
207.7666667
211.2833333
214.7833333
218.2833333
221.7833333
225.2833333
228.7833333
232.2833333
235.7833333
239.2833333
242.7833333
246.2833333
249.7833333
253.2833333
256.7833333
260.2833333
263.7833333
267.2833333
270.7833333
274.2833333
277.7833333
281.2833333
284.7833333
288.2833333
291.7833333
295.2833333
298.7833333
302.2833333
305.7833333
309.2833333
312.8
316.3
319.8
323.3
326.8
330.3
333.8
337.3
340.8
344.3
347.8
351.3
354.8
358.3
361.8