Number Concentration (#/cm3)
1.45762
1.30015
0.781916
0.354882
0.366976
0.855467
0.552274
2.05326
3.91885
3.48744
4.25918
4.97435
6.03044
8.30451
5.52111
11.5607
12.6558
14.1139
18.1825
20.2684
21.1143
27.1797
32.0714
37.3833
42.8779
45.4699
52.9204
51.7008
56.7777
62.959
69.9458
83.2428
95.015
102.206
105.134
115.802
126.551
130.416
144.635
152.985
168.593
179.617
201.541
203.38
215.655
225.189
242.318
247.886
263.139
269.481
277.398
285.931
293.905
297.108
310.924
307.792
316.848
316.538
314.443
313.317
308.171
300.423
302.709
283.938
278.284
265.783
252.438
234.445
224.615
207.841
197.43
181.915
161.171
147.03
134.433
120.01
110.575
98.9289
83.4133
73.2497
65.6126
55.3038
42.9933
44.7458
34.2125
30.853
25.8146
24.3157
16.6748
15.103
12.6033
13.4495
9.79788
7.52576
7.2385
5.83729
5.90131
2.73501
3.64327
2.89582
2.165
1.70257
1.63661
0.621814
0.97295
1.19668
0.476729
0.660843