Minutes
0
3.5
7
10.5
14
17.5
21
24.5
28
31.5
35.01666667
38.51666667
42.01666667
45.51666667
49.01666667
52.51666667
56.01666667
59.51666667
63.01666667
66.51666667
70.01666667
73.51666667
77.01666667
80.51666667
84.01666667
87.51666667
91.01666667
94.51666667
98.01666667
101.5166667
105.0166667
108.5166667
112.0166667
115.5166667
119.0166667
122.5166667
126.0333333
129.5333333
133.0333333
136.5333333
140.0333333
143.5333333
147.0333333
150.5333333
154.0333333
157.5333333
161.0333333
164.5333333
168.0333333
171.5333333
175.0333333
178.5333333
182.0333333
185.5333333
189.0333333
192.5333333
196.0333333
199.5333333
203.0333333
206.5333333
210.0333333
213.55
217.05
220.55
224.05
227.55
231.05
234.55
238.05
241.55
245.05
248.55
252.05
255.55
259.05
262.55
266.05
269.55
273.05
276.55
280.05
283.55
287.05
290.55
294.05
297.55
301.05
304.55
308.0666667
311.5666667
315.0666667
318.5666667
322.0666667
325.5666667
329.0666667
332.5666667
336.0666667
339.5666667
343.0666667
346.5666667
350.0666667
353.5666667
357.0666667
360.5666667