Mode Diameter (nm) from Np
0
53.2798
11.7574
42.9351
63.7804
101.815
121.881
126.346
130.975
130.975
135.773
130.975
135.773
135.773
135.773
130.975
130.975
135.773
130.975
135.773
135.773
130.975
130.975
130.975
140.746
135.773
135.773
135.773
135.773
126.346
130.975
135.773
135.773
130.975
126.346
130.975
126.346
135.773
140.746
126.346
135.773
135.773
135.773
140.746
130.975
130.975
130.975
135.773
130.975
130.975
130.975
130.975
126.346
130.975
135.773
135.773
140.746
130.975
135.773
126.346
140.746
135.773
135.773
135.773
126.346
130.975
135.773
140.746
135.773
121.881
126.346
126.346
135.773
121.881
126.346
130.975
135.773
126.346
130.975
135.773
135.773
135.773
126.346
130.975
130.975
135.773
126.346
130.975
126.346