Geo. Mean(nm)
275.208
202.918
193.004
194.984
193.939
194.442
194.648
197.439
199.03
198.688
199.218
200.726
204.515
204.183
203.201
202.91
204.254
205.209
203.406
203.802
206.8
206.063
207.946
206.703
207.194
207.328
209.697
211.004
208.399
206.637
206.498
211.057
209.59
207.534
209.606
210.417
207.909
211.961
210.591
212.582
217.144
208.302
213.015
209.543
209.85
213.763
212.445
208.573
214.675
209.832
219.457
217.471
217.32
218.233
212.68
212.306
216.779
220.332
218.629
217.004
215.331
216.917
221.339
216.419
217.238
217.942
214.309
216.669
223.573
218.036
223.782
222.782
221.994
219.884
223.091
221.016
224.688
218.574
217.441
225.52
223.731
231.521
227.225
227.969
227.01
223.654
224.86
225.21
226.571
227.507
230.414
223.748