Time (minutes)
0
3.45600000000002
7.05600000000002
10.5120000000000
13.9680000000001
17.5680000000001
21.0240000000000
24.4800000000000
27.9360000000000
31.5360000000000
34.9920000000001
38.4480000000000
42.0480000000000
45.5040000000000
48.9600000000000
52.5600000000000
56.0160000000001
59.4720000000000
62.9280000000000
66.5280000000000
69.9840000000001
74.5920000000000
78.1920000000000
81.6480000000000
85.1040000000000
88.7040000000001
92.1600000000000
95.6160000000001
99.2160000000000
102.672000000000
106.128000000000
109.728000000000
113.184000000000
116.640000000000
120.096000000000
123.696000000000
127.152000000000
130.608000000000
134.208000000000
137.664000000000
141.120000000000
144.720000000000
148.176000000000
151.632000000000
155.232000000000
158.688000000000
162.144000000000
165.744000000000
169.200000000000
172.656000000000
176.112000000000
179.712000000000
183.168000000000
186.624000000000
190.224000000000
193.680000000000
197.136000000000
200.736000000000
204.192000000000
207.648000000000
211.248000000000
214.704000000000
218.160000000000
221.616000000000
225.216000000000
228.672000000000
232.128000000000
235.728000000000
239.184000000000
242.640000000000
246.240000000000
249.696000000000
253.152000000000
256.752000000000
260.208000000000
263.664000000000
267.264000000000
270.720000000000
274.176000000000
277.632000000000
281.232000000000
284.688000000000
288.144000000000
291.744000000000
295.200000000000
298.656000000000
302.256000000000
305.712000000000
309.168000000000
312.768000000000
316.224000000000
319.680000000000
323.136000000000
326.736000000000
330.192000000000
333.648000000000
337.248000000000